%YAML 1.1
%TAG !u! tag:unity3d.com,2011:
--- !u!74 &7400000
AnimationClip:
  m_ObjectHideFlags: 0
  m_PrefabParentObject: {fileID: 0}
  m_PrefabInternal: {fileID: 0}
  m_Name: Water
  serializedVersion: 4
  m_AnimationType: 2
  m_Compressed: 0
  m_UseHighQualityCurve: 1
  m_RotationCurves: []
  m_CompressedRotationCurves: []
  m_PositionCurves: []
  m_ScaleCurves: []
  m_FloatCurves: []
  m_PPtrCurves:
  - curve:
    - time: 0
      value: {fileID: 21300000, guid: 81a0dc4a9d54fd24391968a47b72ee61, type: 3}
    - time: .166666672
      value: {fileID: 21300000, guid: a3ca645e42ba76d4282bb82c866a6ef4, type: 3}
    - time: .333333343
      value: {fileID: 21300000, guid: 1bf0ac47ec1b31e419d210bcaee6c092, type: 3}
    - time: .5
      value: {fileID: 21300000, guid: 13d650aa92cb47b4dbd1aeba78cd06f0, type: 3}
    - time: .666666687
      value: {fileID: 21300000, guid: 7db6096072f27e44da99447fdead0c8b, type: 3}
    - time: .833333313
      value: {fileID: 21300000, guid: 9e81cd28f029a0b449c67da33537029d, type: 3}
    - time: 1
      value: {fileID: 21300000, guid: 4e5d647c494a0c14a9f3c8db8162cc1a, type: 3}
    - time: 1.16666663
      value: {fileID: 21300000, guid: f11e3f62b57fade498cc1060c4fad321, type: 3}
    - time: 1.33333337
      value: {fileID: 21300000, guid: 2a85c088ebcd49d4aa5a02180b646bb5, type: 3}
    - time: 1.5
      value: {fileID: 21300000, guid: f11e3f62b57fade498cc1060c4fad321, type: 3}
    - time: 1.66666663
      value: {fileID: 21300000, guid: 4e5d647c494a0c14a9f3c8db8162cc1a, type: 3}
    - time: 1.83333337
      value: {fileID: 21300000, guid: 9e81cd28f029a0b449c67da33537029d, type: 3}
    - time: 2
      value: {fileID: 21300000, guid: 7db6096072f27e44da99447fdead0c8b, type: 3}
    - time: 2.16666675
      value: {fileID: 21300000, guid: 13d650aa92cb47b4dbd1aeba78cd06f0, type: 3}
    - time: 2.33333325
      value: {fileID: 21300000, guid: 1bf0ac47ec1b31e419d210bcaee6c092, type: 3}
    - time: 2.5
      value: {fileID: 21300000, guid: a3ca645e42ba76d4282bb82c866a6ef4, type: 3}
    - time: 2.66666675
      value: {fileID: 21300000, guid: a3ca645e42ba76d4282bb82c866a6ef4, type: 3}
    attribute: m_Sprite
    path: 
    classID: 212
    script: {fileID: 0}
  m_SampleRate: 6
  m_WrapMode: 0
  m_Bounds:
    m_Center: {x: 0, y: 0, z: 0}
    m_Extent: {x: 0, y: 0, z: 0}
  m_ClipBindingConstant:
    genericBindings:
    - path: 0
      attribute: 0
      script: {fileID: 0}
      classID: 212
      customType: 23
      isPPtrCurve: 1
    pptrCurveMapping:
    - {fileID: 21300000, guid: 81a0dc4a9d54fd24391968a47b72ee61, type: 3}
    - {fileID: 21300000, guid: a3ca645e42ba76d4282bb82c866a6ef4, type: 3}
    - {fileID: 21300000, guid: 1bf0ac47ec1b31e419d210bcaee6c092, type: 3}
    - {fileID: 21300000, guid: 13d650aa92cb47b4dbd1aeba78cd06f0, type: 3}
    - {fileID: 21300000, guid: 7db6096072f27e44da99447fdead0c8b, type: 3}
    - {fileID: 21300000, guid: 9e81cd28f029a0b449c67da33537029d, type: 3}
    - {fileID: 21300000, guid: 4e5d647c494a0c14a9f3c8db8162cc1a, type: 3}
    - {fileID: 21300000, guid: f11e3f62b57fade498cc1060c4fad321, type: 3}
    - {fileID: 21300000, guid: 2a85c088ebcd49d4aa5a02180b646bb5, type: 3}
    - {fileID: 21300000, guid: f11e3f62b57fade498cc1060c4fad321, type: 3}
    - {fileID: 21300000, guid: 4e5d647c494a0c14a9f3c8db8162cc1a, type: 3}
    - {fileID: 21300000, guid: 9e81cd28f029a0b449c67da33537029d, type: 3}
    - {fileID: 21300000, guid: 7db6096072f27e44da99447fdead0c8b, type: 3}
    - {fileID: 21300000, guid: 13d650aa92cb47b4dbd1aeba78cd06f0, type: 3}
    - {fileID: 21300000, guid: 1bf0ac47ec1b31e419d210bcaee6c092, type: 3}
    - {fileID: 21300000, guid: a3ca645e42ba76d4282bb82c866a6ef4, type: 3}
    - {fileID: 21300000, guid: a3ca645e42ba76d4282bb82c866a6ef4, type: 3}
  m_AnimationClipSettings:
    serializedVersion: 2
    m_StartTime: 0
    m_StopTime: 2.83333349
    m_OrientationOffsetY: 0
    m_Level: 0
    m_CycleOffset: 0
    m_LoopTime: 1
    m_LoopBlend: 0
    m_LoopBlendOrientation: 0
    m_LoopBlendPositionY: 0
    m_LoopBlendPositionXZ: 0
    m_KeepOriginalOrientation: 0
    m_KeepOriginalPositionY: 1
    m_KeepOriginalPositionXZ: 0
    m_HeightFromFeet: 0
    m_Mirror: 0
  m_EditorCurves: []
  m_EulerEditorCurves: []
  m_Events: []
