%YAML 1.1
%TAG !u! tag:unity3d.com,2011:
--- !u!74 &7400000
AnimationClip:
  m_ObjectHideFlags: 0
  m_PrefabParentObject: {fileID: 0}
  m_PrefabInternal: {fileID: 0}
  m_Name: Aguia
  serializedVersion: 4
  m_AnimationType: 2
  m_Compressed: 0
  m_UseHighQualityCurve: 1
  m_RotationCurves: []
  m_CompressedRotationCurves: []
  m_PositionCurves: []
  m_ScaleCurves: []
  m_FloatCurves: []
  m_PPtrCurves:
  - curve:
    - time: .000833333295
      value: {fileID: 21300000, guid: 362293314ffc04946a45b8cd6f4c2944, type: 3}
    - time: .0833333358
      value: {fileID: 21300000, guid: 9eb10a3d9819ccc4f88b75957c57776b, type: 3}
    - time: .166666672
      value: {fileID: 21300000, guid: 2901a2fff05bb7a48a6b6c0d9d02433a, type: 3}
    - time: .25
      value: {fileID: 21300000, guid: 54ec086ef3721a24986fd735449f460b, type: 3}
    - time: .333333343
      value: {fileID: 21300000, guid: b1e48c68ab682494a920f1dea93680df, type: 3}
    - time: .416666657
      value: {fileID: 21300000, guid: c60d7e0f4e0b86149bb7c0f398931045, type: 3}
    - time: .5
      value: {fileID: 21300000, guid: ed4cdf36bcbb1a542847e5dee2173860, type: 3}
    - time: .583333313
      value: {fileID: 21300000, guid: 1b7ae72ea3862e24b9eeaba641d1db7e, type: 3}
    - time: .666666687
      value: {fileID: 21300000, guid: 9102d383c8d102640b1ca6ac059cf800, type: 3}
    attribute: m_Sprite
    path: 
    classID: 212
    script: {fileID: 0}
  m_SampleRate: 12
  m_WrapMode: 0
  m_Bounds:
    m_Center: {x: 0, y: 0, z: 0}
    m_Extent: {x: 0, y: 0, z: 0}
  m_ClipBindingConstant:
    genericBindings:
    - path: 0
      attribute: 0
      script: {fileID: 0}
      classID: 212
      customType: 23
      isPPtrCurve: 1
    pptrCurveMapping:
    - {fileID: 21300000, guid: 362293314ffc04946a45b8cd6f4c2944, type: 3}
    - {fileID: 21300000, guid: 9eb10a3d9819ccc4f88b75957c57776b, type: 3}
    - {fileID: 21300000, guid: 2901a2fff05bb7a48a6b6c0d9d02433a, type: 3}
    - {fileID: 21300000, guid: 54ec086ef3721a24986fd735449f460b, type: 3}
    - {fileID: 21300000, guid: b1e48c68ab682494a920f1dea93680df, type: 3}
    - {fileID: 21300000, guid: c60d7e0f4e0b86149bb7c0f398931045, type: 3}
    - {fileID: 21300000, guid: ed4cdf36bcbb1a542847e5dee2173860, type: 3}
    - {fileID: 21300000, guid: 1b7ae72ea3862e24b9eeaba641d1db7e, type: 3}
    - {fileID: 21300000, guid: 9102d383c8d102640b1ca6ac059cf800, type: 3}
  m_AnimationClipSettings:
    serializedVersion: 2
    m_StartTime: 0
    m_StopTime: .75
    m_OrientationOffsetY: 0
    m_Level: 0
    m_CycleOffset: 0
    m_LoopTime: 1
    m_LoopBlend: 0
    m_LoopBlendOrientation: 0
    m_LoopBlendPositionY: 0
    m_LoopBlendPositionXZ: 0
    m_KeepOriginalOrientation: 0
    m_KeepOriginalPositionY: 1
    m_KeepOriginalPositionXZ: 0
    m_HeightFromFeet: 0
    m_Mirror: 0
  m_EditorCurves: []
  m_EulerEditorCurves: []
  m_Events: []
