%YAML 1.1
%TAG !u! tag:unity3d.com,2011:
--- !u!114 &11400000
MonoBehaviour:
  m_ObjectHideFlags: 0
  m_PrefabParentObject: {fileID: 0}
  m_PrefabInternal: {fileID: 0}
  m_GameObject: {fileID: 0}
  m_Enabled: 1
  m_EditorHideFlags: 0
  m_Script: {fileID: 11500000, guid: 7babe9d4f5b9c664d83c07560ee2a913, type: 3}
  m_Name: RatingSetup
  m_EditorClassIdentifier: 
  active: 1
  counter: 5
  lastCheck: 400511.45612993144
