%YAML 1.1
%TAG !u! tag:unity3d.com,2011:
--- !u!74 &7400000
AnimationClip:
  m_ObjectHideFlags: 0
  m_PrefabParentObject: {fileID: 0}
  m_PrefabInternal: {fileID: 0}
  m_Name: SplashBackgroundAnimation
  serializedVersion: 4
  m_AnimationType: 2
  m_Compressed: 0
  m_UseHighQualityCurve: 1
  m_RotationCurves: []
  m_CompressedRotationCurves: []
  m_PositionCurves: []
  m_ScaleCurves: []
  m_FloatCurves: []
  m_PPtrCurves:
  - curve:
    - time: 0
      value: {fileID: 21300000, guid: 87fca46ea4c83a44d9f736e9b79a95b6, type: 3}
    - time: .0833333358
      value: {fileID: 21300000, guid: 9f8c9b5136fb6f24da1eb15de37337c7, type: 3}
    - time: .166666672
      value: {fileID: 21300000, guid: fd7bf4ceee6846e4db41cb3e16607de5, type: 3}
    - time: .25
      value: {fileID: 21300000, guid: 22beba60c45271247b0a7df1e5677bfe, type: 3}
    - time: .333333343
      value: {fileID: 21300000, guid: 5eea6cccc19f05346b947ff79ce7bb1d, type: 3}
    - time: .416666657
      value: {fileID: 21300000, guid: ce258e1823077164fbff05d46913ee91, type: 3}
    - time: .5
      value: {fileID: 21300000, guid: 5dbbc2625eacb014cb69807195197750, type: 3}
    - time: .583333313
      value: {fileID: 21300000, guid: 54b4bdca0dab33548b58af50f9ac68e2, type: 3}
    - time: .666666687
      value: {fileID: 21300000, guid: e3facfafd0958e04a9584c00308a31f5, type: 3}
    attribute: m_Sprite
    path: 
    classID: 212
    script: {fileID: 0}
  m_SampleRate: 12
  m_WrapMode: 0
  m_Bounds:
    m_Center: {x: 0, y: 0, z: 0}
    m_Extent: {x: 0, y: 0, z: 0}
  m_AnimationClipSettings:
    serializedVersion: 2
    m_StartTime: 0
    m_StopTime: .75
    m_OrientationOffsetY: 0
    m_Level: 0
    m_CycleOffset: 0
    m_LoopTime: 1
    m_LoopBlend: 0
    m_LoopBlendOrientation: 0
    m_LoopBlendPositionY: 0
    m_LoopBlendPositionXZ: 0
    m_KeepOriginalOrientation: 0
    m_KeepOriginalPositionY: 1
    m_KeepOriginalPositionXZ: 0
    m_HeightFromFeet: 0
    m_Mirror: 0
  m_EditorCurves: []
  m_EulerEditorCurves: []
  m_Events: []
