%YAML 1.1
%TAG !u! tag:unity3d.com,2011:
--- !u!74 &7400000
AnimationClip:
  m_ObjectHideFlags: 0
  m_PrefabParentObject: {fileID: 0}
  m_PrefabInternal: {fileID: 0}
  m_Name: AddOns
  serializedVersion: 4
  m_AnimationType: 2
  m_Compressed: 0
  m_UseHighQualityCurve: 1
  m_RotationCurves: []
  m_CompressedRotationCurves: []
  m_PositionCurves: []
  m_ScaleCurves: []
  m_FloatCurves: []
  m_PPtrCurves:
  - curve:
    - time: 0
      value: {fileID: 21300000, guid: e1afec247b2bad84aa33262b45c9cc33, type: 3}
    - time: .125
      value: {fileID: 21300000, guid: d5a0015f9ce294749a7d1e580a47e40e, type: 3}
    - time: .25
      value: {fileID: 21300000, guid: 88ebb23eab8ee4a4986278254df1fd13, type: 3}
    - time: .375
      value: {fileID: 21300000, guid: 30292b6a05d706b479428135ec2317af, type: 3}
    - time: .5
      value: {fileID: 21300000, guid: 97a9c52093f695847acd8f2c696595e9, type: 3}
    - time: .625
      value: {fileID: 21300000, guid: 30292b6a05d706b479428135ec2317af, type: 3}
    - time: .75
      value: {fileID: 21300000, guid: 88ebb23eab8ee4a4986278254df1fd13, type: 3}
    - time: .875
      value: {fileID: 21300000, guid: d5a0015f9ce294749a7d1e580a47e40e, type: 3}
    - time: 1
      value: {fileID: 21300000, guid: e1afec247b2bad84aa33262b45c9cc33, type: 3}
    attribute: m_Sprite
    path: 
    classID: 212
    script: {fileID: 0}
  m_SampleRate: 8
  m_WrapMode: 0
  m_Bounds:
    m_Center: {x: 0, y: 0, z: 0}
    m_Extent: {x: 0, y: 0, z: 0}
  m_AnimationClipSettings:
    serializedVersion: 2
    m_StartTime: 0
    m_StopTime: 1.125
    m_OrientationOffsetY: 0
    m_Level: 0
    m_CycleOffset: 0
    m_LoopTime: 1
    m_LoopBlend: 0
    m_LoopBlendOrientation: 0
    m_LoopBlendPositionY: 0
    m_LoopBlendPositionXZ: 0
    m_KeepOriginalOrientation: 0
    m_KeepOriginalPositionY: 1
    m_KeepOriginalPositionXZ: 0
    m_HeightFromFeet: 0
    m_Mirror: 0
  m_EditorCurves: []
  m_EulerEditorCurves: []
  m_Events: []
