%YAML 1.1
%TAG !u! tag:unity3d.com,2011:
--- !u!74 &7400000
AnimationClip:
  m_ObjectHideFlags: 0
  m_PrefabParentObject: {fileID: 0}
  m_PrefabInternal: {fileID: 0}
  m_Name: IndiArm_Run
  serializedVersion: 4
  m_AnimationType: 2
  m_Compressed: 0
  m_UseHighQualityCurve: 1
  m_RotationCurves: []
  m_CompressedRotationCurves: []
  m_PositionCurves: []
  m_ScaleCurves: []
  m_FloatCurves: []
  m_PPtrCurves:
  - curve:
    - time: 0
      value: {fileID: 21300000, guid: 4d80ef4b992124746b85b1f3d8429b4a, type: 3}
    - time: .055555556
      value: {fileID: 21300000, guid: c0040b9640fd05842a0331fea329acf3, type: 3}
    - time: .111111112
      value: {fileID: 21300000, guid: 56b53f4e7f89d5742871347dd49b48d3, type: 3}
    - time: .166666672
      value: {fileID: 21300000, guid: eeb8b9f72859b1943854d2c09f4d268d, type: 3}
    - time: .222222224
      value: {fileID: 21300000, guid: ef915a4e3ec560146b380070305b75eb, type: 3}
    - time: .277777791
      value: {fileID: 21300000, guid: d9495f204d7e0274a8be4cfc3fa3b37c, type: 3}
    - time: .333333343
      value: {fileID: 21300000, guid: 044877e36ef8eb64a93e7891d00ac5d6, type: 3}
    - time: .388888896
      value: {fileID: 21300000, guid: b7e4c16f5341ae0409c645957590a817, type: 3}
    - time: .444444448
      value: {fileID: 21300000, guid: 28782accf493a4544860bc1d451c8b4a, type: 3}
    - time: .5
      value: {fileID: 21300000, guid: 625d522940cb69346a4551d463341e4b, type: 3}
    attribute: m_Sprite
    path: 
    classID: 212
    script: {fileID: 0}
  m_SampleRate: 18
  m_WrapMode: 0
  m_Bounds:
    m_Center: {x: 0, y: 0, z: 0}
    m_Extent: {x: 0, y: 0, z: 0}
  m_AnimationClipSettings:
    serializedVersion: 2
    m_StartTime: 0
    m_StopTime: .555555582
    m_OrientationOffsetY: 0
    m_Level: 0
    m_CycleOffset: 0
    m_LoopTime: 1
    m_LoopBlend: 0
    m_LoopBlendOrientation: 0
    m_LoopBlendPositionY: 0
    m_LoopBlendPositionXZ: 0
    m_KeepOriginalOrientation: 0
    m_KeepOriginalPositionY: 1
    m_KeepOriginalPositionXZ: 0
    m_HeightFromFeet: 0
    m_Mirror: 0
  m_EditorCurves: []
  m_EulerEditorCurves: []
  m_Events: []
