%YAML 1.1
%TAG !u! tag:unity3d.com,2011:
--- !u!74 &7400000
AnimationClip:
  m_ObjectHideFlags: 0
  m_PrefabParentObject: {fileID: 0}
  m_PrefabInternal: {fileID: 0}
  m_Name: Indi_DoubleJump
  serializedVersion: 4
  m_AnimationType: 2
  m_Compressed: 0
  m_UseHighQualityCurve: 1
  m_RotationCurves: []
  m_CompressedRotationCurves: []
  m_PositionCurves: []
  m_ScaleCurves: []
  m_FloatCurves: []
  m_PPtrCurves:
  - curve:
    - time: 0
      value: {fileID: 21300000, guid: 0336c2b5772394d40bd0ebbfacf144c1, type: 3}
    - time: .0833333358
      value: {fileID: 21300000, guid: 41e2be9489be5b04aa7984fd94a29763, type: 3}
    - time: .166666672
      value: {fileID: 21300000, guid: 967c5526315318c499dc1fd8b12b7b64, type: 3}
    - time: .25
      value: {fileID: 21300000, guid: 81b1d9282e3b4b446a736b5f719ba815, type: 3}
    - time: .333333343
      value: {fileID: 21300000, guid: a33c5453c53cc0043a7f74e924b94d98, type: 3}
    - time: .416666657
      value: {fileID: 21300000, guid: fec6a56789529004e81ef12570d9bd87, type: 3}
    - time: .5
      value: {fileID: 21300000, guid: 9f51f1616564b914db0d9ce4f4be396b, type: 3}
    - time: .583333313
      value: {fileID: 21300000, guid: 0e78fbf457c955e4b88c9c1d4937c7a1, type: 3}
    - time: .666666687
      value: {fileID: 21300000, guid: b781cd1d325f64741ba9fb804b69540e, type: 3}
    - time: .75
      value: {fileID: 21300000, guid: 9a260c5997e53ca4da214daa031e04e1, type: 3}
    - time: .833333313
      value: {fileID: 21300000, guid: 4289498945bc9884d9584e7973dc1d5b, type: 3}
    attribute: m_Sprite
    path: 
    classID: 212
    script: {fileID: 0}
  m_SampleRate: 12
  m_WrapMode: 0
  m_Bounds:
    m_Center: {x: 0, y: 0, z: 0}
    m_Extent: {x: 0, y: 0, z: 0}
  m_AnimationClipSettings:
    serializedVersion: 2
    m_StartTime: 0
    m_StopTime: .916666627
    m_OrientationOffsetY: 0
    m_Level: 0
    m_CycleOffset: 0
    m_LoopTime: 1
    m_LoopBlend: 0
    m_LoopBlendOrientation: 0
    m_LoopBlendPositionY: 0
    m_LoopBlendPositionXZ: 0
    m_KeepOriginalOrientation: 0
    m_KeepOriginalPositionY: 1
    m_KeepOriginalPositionXZ: 0
    m_HeightFromFeet: 0
    m_Mirror: 0
  m_EditorCurves: []
  m_EulerEditorCurves: []
  m_Events: []
