%YAML 1.1
%TAG !u! tag:unity3d.com,2011:
--- !u!74 &7400000
AnimationClip:
  m_ObjectHideFlags: 0
  m_PrefabParentObject: {fileID: 0}
  m_PrefabInternal: {fileID: 0}
  m_Name: nuvemcredits
  serializedVersion: 4
  m_AnimationType: 2
  m_Compressed: 0
  m_UseHighQualityCurve: 1
  m_RotationCurves: []
  m_CompressedRotationCurves: []
  m_PositionCurves: []
  m_ScaleCurves: []
  m_FloatCurves: []
  m_PPtrCurves:
  - curve:
    - time: 0
      value: {fileID: 21300000, guid: fba83d5d8116ab947815c9a2a5e065fb, type: 3}
    - time: .0833333358
      value: {fileID: 21300000, guid: 076b3e4828d139a469f2114b04268c97, type: 3}
    - time: .166666672
      value: {fileID: 21300000, guid: f96d7af08321bed4993137df5ca99d64, type: 3}
    - time: .25
      value: {fileID: 21300000, guid: 60acd4141a93341489d33b64885e926c, type: 3}
    - time: .333333343
      value: {fileID: 21300000, guid: e3696ee8692e20346821472918320220, type: 3}
    - time: .416666657
      value: {fileID: 21300000, guid: 58dbe66429f63174eb0ad781966482e5, type: 3}
    - time: .5
      value: {fileID: 21300000, guid: abcccc12b5ea11f468c1621bd7e3e0f1, type: 3}
    - time: .583333313
      value: {fileID: 21300000, guid: 8544956daadbef94eacc7226059f09c4, type: 3}
    attribute: m_Sprite
    path: 
    classID: 212
    script: {fileID: 0}
  m_SampleRate: 12
  m_WrapMode: 0
  m_Bounds:
    m_Center: {x: 0, y: 0, z: 0}
    m_Extent: {x: 0, y: 0, z: 0}
  m_ClipBindingConstant:
    genericBindings:
    - path: 0
      attribute: 0
      script: {fileID: 0}
      classID: 212
      customType: 23
      isPPtrCurve: 1
    pptrCurveMapping:
    - {fileID: 21300000, guid: fba83d5d8116ab947815c9a2a5e065fb, type: 3}
    - {fileID: 21300000, guid: 076b3e4828d139a469f2114b04268c97, type: 3}
    - {fileID: 21300000, guid: f96d7af08321bed4993137df5ca99d64, type: 3}
    - {fileID: 21300000, guid: 60acd4141a93341489d33b64885e926c, type: 3}
    - {fileID: 21300000, guid: e3696ee8692e20346821472918320220, type: 3}
    - {fileID: 21300000, guid: 58dbe66429f63174eb0ad781966482e5, type: 3}
    - {fileID: 21300000, guid: abcccc12b5ea11f468c1621bd7e3e0f1, type: 3}
    - {fileID: 21300000, guid: 8544956daadbef94eacc7226059f09c4, type: 3}
  m_AnimationClipSettings:
    serializedVersion: 2
    m_StartTime: 0
    m_StopTime: .666666627
    m_OrientationOffsetY: 0
    m_Level: 0
    m_CycleOffset: 0
    m_LoopTime: 1
    m_LoopBlend: 0
    m_LoopBlendOrientation: 0
    m_LoopBlendPositionY: 0
    m_LoopBlendPositionXZ: 0
    m_KeepOriginalOrientation: 0
    m_KeepOriginalPositionY: 1
    m_KeepOriginalPositionXZ: 0
    m_HeightFromFeet: 0
    m_Mirror: 0
  m_EditorCurves: []
  m_EulerEditorCurves: []
  m_Events: []
