%YAML 1.1
%TAG !u! tag:unity3d.com,2011:
--- !u!74 &7400000
AnimationClip:
  m_ObjectHideFlags: 0
  m_PrefabParentObject: {fileID: 0}
  m_PrefabInternal: {fileID: 0}
  m_Name: animal1
  serializedVersion: 4
  m_AnimationType: 2
  m_Compressed: 0
  m_UseHighQualityCurve: 1
  m_RotationCurves: []
  m_CompressedRotationCurves: []
  m_PositionCurves:
  - curve:
      serializedVersion: 2
      m_Curve:
      - time: 0
        value: {x: -35.1889992, y: -5.04309988, z: 6}
        inSlope: {x: 34.2537766, y: .768514097, z: 0}
        outSlope: {x: 34.2537766, y: .768514097, z: 0}
        tangentMode: 0
      - time: .583333313
        value: {x: -13.2057362, y: -4.5948, z: 5.83453465}
        inSlope: {x: 39.916275, y: -2.97754049, z: -.468030393}
        outSlope: {x: 39.916275, y: -2.97754049, z: -.468030393}
        tangentMode: 779316321
      - time: .666666687
        value: {x: -9.86916637, y: -5.15509987, z: 5.79468775}
        inSlope: {x: 40.1368866, y: -2.6897974, z: -.486265391}
        outSlope: {x: 40.1368866, y: -2.6897974, z: -.486265391}
        tangentMode: 0
      - time: .75
        value: {x: -6.52033854, y: -5.04309988, z: 5.75382805}
        inSlope: {x: 40.2104301, y: 1.05625725, z: -.492343634}
        outSlope: {x: 40.2104301, y: 1.05625725, z: -.492343634}
        tangentMode: 0
      - time: 1.33333325
        value: {x: 16.235075, y: -4.5948, z: 5.52454042}
        inSlope: {x: 36.6070251, y: -2.97753572, z: -.194506243}
        outSlope: {x: 36.6070251, y: -2.97753572, z: -.194506243}
        tangentMode: 1769104756
      - time: 1.41666675
        value: {x: 19.2407284, y: -5.15509987, z: 5.51204634}
        inSlope: {x: 35.5039368, y: -2.68979216, z: -.103331238}
        outSlope: {x: 35.5039368, y: -2.68979216, z: -.103331238}
        tangentMode: 0
      - time: 1.5
        value: {x: 22.1483192, y: -5.04309988, z: 5.5076561}
        inSlope: {x: 34.2537766, y: .597333908, z: 8.80379147e-08}
        outSlope: {x: 34.2537766, y: .597333908, z: 8.80379147e-08}
        tangentMode: 1886613065
      - time: 2.25
        value: {x: 41.882, y: -5.15509987, z: 6}
        inSlope: {x: 16.3838253, y: -.0746666566, z: 1.47703111}
        outSlope: {x: 16.3838253, y: -.0746666566, z: 1.47703111}
        tangentMode: 0
      - time: 7.58333349
        value: {x: 33.9560013, y: -5.15509987, z: 21.7549992}
        inSlope: {x: -1.48612475, y: 0, z: 2.95406222}
        outSlope: {x: -1.48612475, y: 0, z: 2.95406222}
        tangentMode: -1
      m_PreInfinity: 2
      m_PostInfinity: 2
    path: 
  m_ScaleCurves: []
  m_FloatCurves: []
  m_PPtrCurves:
  - curve:
    - time: 0
      value: {fileID: 21300000, guid: f77502063505a01489f629834da98d1c, type: 3}
    - time: .0833333358
      value: {fileID: 21300000, guid: c3d99246fc5174c44a601d0df90d6add, type: 3}
    - time: .166666672
      value: {fileID: 21300000, guid: 015a2c025ad19314d8058d3f8c4d8e2b, type: 3}
    - time: .25
      value: {fileID: 21300000, guid: 753fedbdb9e86d644a0475dc0ad8ae9a, type: 3}
    - time: .333333343
      value: {fileID: 21300000, guid: c56d06b822169d947b902c431b58ed8f, type: 3}
    - time: .416666657
      value: {fileID: 21300000, guid: 53e523969021adc4cbd9d2f5a32b57b3, type: 3}
    - time: .5
      value: {fileID: 21300000, guid: 7342717bb0e1efd4bae3059576ed64ab, type: 3}
    - time: .666666687
      value: {fileID: 21300000, guid: 7342717bb0e1efd4bae3059576ed64ab, type: 3}
    - time: .75
      value: {fileID: 21300000, guid: f77502063505a01489f629834da98d1c, type: 3}
    - time: .833333313
      value: {fileID: 21300000, guid: c3d99246fc5174c44a601d0df90d6add, type: 3}
    - time: .916666687
      value: {fileID: 21300000, guid: 015a2c025ad19314d8058d3f8c4d8e2b, type: 3}
    - time: 1
      value: {fileID: 21300000, guid: 753fedbdb9e86d644a0475dc0ad8ae9a, type: 3}
    - time: 1.08333337
      value: {fileID: 21300000, guid: c56d06b822169d947b902c431b58ed8f, type: 3}
    - time: 1.16666663
      value: {fileID: 21300000, guid: 53e523969021adc4cbd9d2f5a32b57b3, type: 3}
    - time: 1.25
      value: {fileID: 21300000, guid: 7342717bb0e1efd4bae3059576ed64ab, type: 3}
    - time: 1.41666675
      value: {fileID: 21300000, guid: 7342717bb0e1efd4bae3059576ed64ab, type: 3}
    - time: 1.5
      value: {fileID: 21300000, guid: f77502063505a01489f629834da98d1c, type: 3}
    - time: 1.58333337
      value: {fileID: 21300000, guid: c3d99246fc5174c44a601d0df90d6add, type: 3}
    - time: 1.66666663
      value: {fileID: 21300000, guid: 015a2c025ad19314d8058d3f8c4d8e2b, type: 3}
    - time: 1.75
      value: {fileID: 21300000, guid: 753fedbdb9e86d644a0475dc0ad8ae9a, type: 3}
    - time: 1.83333337
      value: {fileID: 21300000, guid: c56d06b822169d947b902c431b58ed8f, type: 3}
    - time: 1.91666663
      value: {fileID: 21300000, guid: 53e523969021adc4cbd9d2f5a32b57b3, type: 3}
    - time: 2.25
      value: {fileID: 21300000, guid: 7342717bb0e1efd4bae3059576ed64ab, type: 3}
    attribute: m_Sprite
    path: 
    classID: 212
    script: {fileID: 0}
  m_SampleRate: 12
  m_WrapMode: 0
  m_Bounds:
    m_Center: {x: 0, y: 0, z: 0}
    m_Extent: {x: 0, y: 0, z: 0}
  m_ClipBindingConstant:
    genericBindings:
    - path: 0
      attribute: 1
      script: {fileID: 0}
      classID: 4
      customType: 0
      isPPtrCurve: 0
    - path: 0
      attribute: 0
      script: {fileID: 0}
      classID: 212
      customType: 23
      isPPtrCurve: 1
    pptrCurveMapping:
    - {fileID: 21300000, guid: f77502063505a01489f629834da98d1c, type: 3}
    - {fileID: 21300000, guid: c3d99246fc5174c44a601d0df90d6add, type: 3}
    - {fileID: 21300000, guid: 015a2c025ad19314d8058d3f8c4d8e2b, type: 3}
    - {fileID: 21300000, guid: 753fedbdb9e86d644a0475dc0ad8ae9a, type: 3}
    - {fileID: 21300000, guid: c56d06b822169d947b902c431b58ed8f, type: 3}
    - {fileID: 21300000, guid: 53e523969021adc4cbd9d2f5a32b57b3, type: 3}
    - {fileID: 21300000, guid: 7342717bb0e1efd4bae3059576ed64ab, type: 3}
    - {fileID: 21300000, guid: 7342717bb0e1efd4bae3059576ed64ab, type: 3}
    - {fileID: 21300000, guid: f77502063505a01489f629834da98d1c, type: 3}
    - {fileID: 21300000, guid: c3d99246fc5174c44a601d0df90d6add, type: 3}
    - {fileID: 21300000, guid: 015a2c025ad19314d8058d3f8c4d8e2b, type: 3}
    - {fileID: 21300000, guid: 753fedbdb9e86d644a0475dc0ad8ae9a, type: 3}
    - {fileID: 21300000, guid: c56d06b822169d947b902c431b58ed8f, type: 3}
    - {fileID: 21300000, guid: 53e523969021adc4cbd9d2f5a32b57b3, type: 3}
    - {fileID: 21300000, guid: 7342717bb0e1efd4bae3059576ed64ab, type: 3}
    - {fileID: 21300000, guid: 7342717bb0e1efd4bae3059576ed64ab, type: 3}
    - {fileID: 21300000, guid: f77502063505a01489f629834da98d1c, type: 3}
    - {fileID: 21300000, guid: c3d99246fc5174c44a601d0df90d6add, type: 3}
    - {fileID: 21300000, guid: 015a2c025ad19314d8058d3f8c4d8e2b, type: 3}
    - {fileID: 21300000, guid: 753fedbdb9e86d644a0475dc0ad8ae9a, type: 3}
    - {fileID: 21300000, guid: c56d06b822169d947b902c431b58ed8f, type: 3}
    - {fileID: 21300000, guid: 53e523969021adc4cbd9d2f5a32b57b3, type: 3}
    - {fileID: 21300000, guid: 7342717bb0e1efd4bae3059576ed64ab, type: 3}
  m_AnimationClipSettings:
    serializedVersion: 2
    m_StartTime: 0
    m_StopTime: 7.58333349
    m_OrientationOffsetY: 0
    m_Level: 0
    m_CycleOffset: 0
    m_LoopTime: 1
    m_LoopBlend: 0
    m_LoopBlendOrientation: 0
    m_LoopBlendPositionY: 0
    m_LoopBlendPositionXZ: 0
    m_KeepOriginalOrientation: 0
    m_KeepOriginalPositionY: 1
    m_KeepOriginalPositionXZ: 0
    m_HeightFromFeet: 0
    m_Mirror: 0
  m_EditorCurves:
  - curve:
      serializedVersion: 2
      m_Curve:
      - time: 0
        value: -5.04309988
        inSlope: .768514097
        outSlope: .768514097
        tangentMode: 10
      - time: .583333313
        value: -4.5948
        inSlope: -2.97754049
        outSlope: -2.97754049
        tangentMode: 10
      - time: .666666687
        value: -5.15509987
        inSlope: -2.6897974
        outSlope: -2.6897974
        tangentMode: 10
      - time: .75
        value: -5.04309988
        inSlope: 1.05625725
        outSlope: 1.05625725
        tangentMode: 10
      - time: 1.33333325
        value: -4.5948
        inSlope: -2.97753572
        outSlope: -2.97753572
        tangentMode: 10
      - time: 1.41666675
        value: -5.15509987
        inSlope: -2.68979216
        outSlope: -2.68979216
        tangentMode: 10
      - time: 1.5
        value: -5.04309988
        inSlope: .597333908
        outSlope: .597333908
        tangentMode: 10
      - time: 2.25
        value: -5.15509987
        inSlope: -.0746666566
        outSlope: -.0746666566
        tangentMode: 10
      - time: 7.58333349
        value: -5.15509987
        inSlope: 0
        outSlope: 0
        tangentMode: 10
      m_PreInfinity: 2
      m_PostInfinity: 2
    attribute: m_LocalPosition.y
    path: 
    classID: 4
    script: {fileID: 0}
  - curve:
      serializedVersion: 2
      m_Curve:
      - time: 0
        value: 6
        inSlope: 0
        outSlope: 0
        tangentMode: 10
      - time: 2.25
        value: 6
        inSlope: 1.47703111
        outSlope: 1.47703111
        tangentMode: 10
      - time: 7.58333349
        value: 21.7549992
        inSlope: 2.95406222
        outSlope: 2.95406222
        tangentMode: 10
      m_PreInfinity: 2
      m_PostInfinity: 2
    attribute: m_LocalPosition.z
    path: 
    classID: 4
    script: {fileID: 0}
  - curve:
      serializedVersion: 2
      m_Curve:
      - time: 0
        value: -35.1889992
        inSlope: 34.2537766
        outSlope: 34.2537766
        tangentMode: 10
      - time: 2.25
        value: 41.882
        inSlope: 16.3838253
        outSlope: 16.3838253
        tangentMode: 10
      - time: 7.58333349
        value: 33.9560013
        inSlope: -1.48612475
        outSlope: -1.48612475
        tangentMode: 10
      m_PreInfinity: 2
      m_PostInfinity: 2
    attribute: m_LocalPosition.x
    path: 
    classID: 4
    script: {fileID: 0}
  m_EulerEditorCurves: []
  m_Events: []
