%YAML 1.1
%TAG !u! tag:unity3d.com,2011:
--- !u!74 &7400000
AnimationClip:
  m_ObjectHideFlags: 0
  m_PrefabParentObject: {fileID: 0}
  m_PrefabInternal: {fileID: 0}
  m_Name: baleia1
  serializedVersion: 4
  m_AnimationType: 2
  m_Compressed: 0
  m_UseHighQualityCurve: 1
  m_RotationCurves: []
  m_CompressedRotationCurves: []
  m_PositionCurves:
  - curve:
      serializedVersion: 2
      m_Curve:
      - time: 0
        value: {x: -44.9210014, y: 4.21600008, z: 2.86999989}
        inSlope: {x: .755493045, y: 0, z: 0}
        outSlope: {x: .755493045, y: 0, z: 0}
        tangentMode: 1728041604
      - time: 119.150002
        value: {x: 45.0960007, y: 4.21600008, z: 2.86999989}
        inSlope: {x: .377746522, y: 0, z: 0}
        outSlope: {x: .377746522, y: 0, z: 0}
        tangentMode: 75
      - time: 149.166672
        value: {x: 45.0960007, y: 4.21600008, z: 2.86999989}
        inSlope: {x: 0, y: 0, z: 0}
        outSlope: {x: 0, y: 0, z: 0}
        tangentMode: 17253
      m_PreInfinity: 2
      m_PostInfinity: 2
    path: 
  m_ScaleCurves: []
  m_FloatCurves: []
  m_PPtrCurves: []
  m_SampleRate: 60
  m_WrapMode: 0
  m_Bounds:
    m_Center: {x: 0, y: 0, z: 0}
    m_Extent: {x: 0, y: 0, z: 0}
  m_ClipBindingConstant:
    genericBindings:
    - path: 0
      attribute: 1
      script: {fileID: 0}
      classID: 4
      customType: 0
      isPPtrCurve: 0
    pptrCurveMapping: []
  m_AnimationClipSettings:
    serializedVersion: 2
    m_StartTime: 0
    m_StopTime: 149.166672
    m_OrientationOffsetY: 0
    m_Level: 0
    m_CycleOffset: 0
    m_LoopTime: 1
    m_LoopBlend: 0
    m_LoopBlendOrientation: 0
    m_LoopBlendPositionY: 0
    m_LoopBlendPositionXZ: 0
    m_KeepOriginalOrientation: 0
    m_KeepOriginalPositionY: 1
    m_KeepOriginalPositionXZ: 0
    m_HeightFromFeet: 0
    m_Mirror: 0
  m_EditorCurves:
  - curve:
      serializedVersion: 2
      m_Curve:
      - time: 0
        value: -44.9210014
        inSlope: .755493045
        outSlope: .755493045
        tangentMode: 10
      - time: 119.150002
        value: 45.0960007
        inSlope: .377746522
        outSlope: .377746522
        tangentMode: 10
      - time: 149.166672
        value: 45.0960007
        inSlope: 0
        outSlope: 0
        tangentMode: 10
      m_PreInfinity: 2
      m_PostInfinity: 2
    attribute: m_LocalPosition.x
    path: 
    classID: 4
    script: {fileID: 0}
  - curve:
      serializedVersion: 2
      m_Curve:
      - time: 0
        value: 4.21600008
        inSlope: 0
        outSlope: 0
        tangentMode: 10
      - time: 119.150002
        value: 4.21600008
        inSlope: 0
        outSlope: 0
        tangentMode: 10
      - time: 149.166672
        value: 4.21600008
        inSlope: 0
        outSlope: 0
        tangentMode: 10
      m_PreInfinity: 2
      m_PostInfinity: 2
    attribute: m_LocalPosition.y
    path: 
    classID: 4
    script: {fileID: 0}
  - curve:
      serializedVersion: 2
      m_Curve:
      - time: 0
        value: 2.86999989
        inSlope: 0
        outSlope: 0
        tangentMode: 10
      - time: 119.150002
        value: 2.86999989
        inSlope: 0
        outSlope: 0
        tangentMode: 10
      - time: 149.166672
        value: 2.86999989
        inSlope: 0
        outSlope: 0
        tangentMode: 10
      m_PreInfinity: 2
      m_PostInfinity: 2
    attribute: m_LocalPosition.z
    path: 
    classID: 4
    script: {fileID: 0}
  m_EulerEditorCurves: []
  m_Events: []
