%YAML 1.1
%TAG !u! tag:unity3d.com,2011:
--- !u!74 &7400000
AnimationClip:
  m_ObjectHideFlags: 0
  m_PrefabParentObject: {fileID: 0}
  m_PrefabInternal: {fileID: 0}
  m_Name: dagonCredts
  serializedVersion: 4
  m_AnimationType: 2
  m_Compressed: 0
  m_UseHighQualityCurve: 1
  m_RotationCurves: []
  m_CompressedRotationCurves: []
  m_PositionCurves: []
  m_ScaleCurves: []
  m_FloatCurves: []
  m_PPtrCurves:
  - curve:
    - time: 0
      value: {fileID: 21300000, guid: 4f9593a06b54e1e47864fed7042c60b9, type: 3}
    - time: .0714285746
      value: {fileID: 21300000, guid: 32294d64797c1414ea7950293c087bcf, type: 3}
    - time: .142857149
      value: {fileID: 21300000, guid: 35360ad73f688f04caaadd5ecebbc252, type: 3}
    - time: .214285716
      value: {fileID: 21300000, guid: 79e8458a180d42f46b6b327460f27aa0, type: 3}
    - time: .285714298
      value: {fileID: 21300000, guid: 60db327ba98377c469a2bf679a9d1c27, type: 3}
    - time: .357142866
      value: {fileID: 21300000, guid: efa4a5e0a9a5e2f43ac8bcebbe5d0b5b, type: 3}
    - time: .428571433
      value: {fileID: 21300000, guid: 2e4f5270d7d30454690a3893e2e0ffb6, type: 3}
    - time: .5
      value: {fileID: 21300000, guid: 58bd0e1cfb7a3d44eb685f0094815e8e, type: 3}
    attribute: m_Sprite
    path: 
    classID: 212
    script: {fileID: 0}
  m_SampleRate: 14
  m_WrapMode: 0
  m_Bounds:
    m_Center: {x: 0, y: 0, z: 0}
    m_Extent: {x: 0, y: 0, z: 0}
  m_ClipBindingConstant:
    genericBindings:
    - path: 0
      attribute: 0
      script: {fileID: 0}
      classID: 212
      customType: 23
      isPPtrCurve: 1
    pptrCurveMapping:
    - {fileID: 21300000, guid: 4f9593a06b54e1e47864fed7042c60b9, type: 3}
    - {fileID: 21300000, guid: 32294d64797c1414ea7950293c087bcf, type: 3}
    - {fileID: 21300000, guid: 35360ad73f688f04caaadd5ecebbc252, type: 3}
    - {fileID: 21300000, guid: 79e8458a180d42f46b6b327460f27aa0, type: 3}
    - {fileID: 21300000, guid: 60db327ba98377c469a2bf679a9d1c27, type: 3}
    - {fileID: 21300000, guid: efa4a5e0a9a5e2f43ac8bcebbe5d0b5b, type: 3}
    - {fileID: 21300000, guid: 2e4f5270d7d30454690a3893e2e0ffb6, type: 3}
    - {fileID: 21300000, guid: 58bd0e1cfb7a3d44eb685f0094815e8e, type: 3}
  m_AnimationClipSettings:
    serializedVersion: 2
    m_StartTime: 0
    m_StopTime: .571428597
    m_OrientationOffsetY: 0
    m_Level: 0
    m_CycleOffset: 0
    m_LoopTime: 1
    m_LoopBlend: 0
    m_LoopBlendOrientation: 0
    m_LoopBlendPositionY: 0
    m_LoopBlendPositionXZ: 0
    m_KeepOriginalOrientation: 0
    m_KeepOriginalPositionY: 1
    m_KeepOriginalPositionXZ: 0
    m_HeightFromFeet: 0
    m_Mirror: 0
  m_EditorCurves: []
  m_EulerEditorCurves: []
  m_Events: []
