%YAML 1.1
%TAG !u! tag:unity3d.com,2011:
--- !u!74 &7400000
AnimationClip:
  m_ObjectHideFlags: 0
  m_PrefabParentObject: {fileID: 0}
  m_PrefabInternal: {fileID: 0}
  m_Name: felipe
  serializedVersion: 4
  m_AnimationType: 2
  m_Compressed: 0
  m_UseHighQualityCurve: 1
  m_RotationCurves: []
  m_CompressedRotationCurves: []
  m_PositionCurves:
  - curve:
      serializedVersion: 2
      m_Curve:
      - time: 0
        value: {x: -3.63000011, y: -7.55000019, z: 0}
        inSlope: {x: .120102957, y: .267332315, z: -.00470643723}
        outSlope: {x: .120102957, y: .267332315, z: -.00470643723}
        tangentMode: 0
      - time: 30.0333328
        value: {x: -.0229080003, y: .478879988, z: -.141350001}
        inSlope: {x: .120102957, y: .267332315, z: -.00470643723}
        outSlope: {x: .120102957, y: .267332315, z: -.00470643723}
        tangentMode: 84
      m_PreInfinity: 2
      m_PostInfinity: 2
    path: 
  m_ScaleCurves:
  - curve:
      serializedVersion: 2
      m_Curve:
      - time: 0
        value: {x: .0552158579, y: .0552158654, z: .0552158654}
        inSlope: {x: -.00152266631, y: -.00152266643, z: -.00152266643}
        outSlope: {x: -.00152266631, y: -.00152266643, z: -.00152266643}
        tangentMode: 0
      - time: 30.0333328
        value: {x: .00948511437, y: .00948511716, z: .00948511716}
        inSlope: {x: -.00152266631, y: -.00152266643, z: -.00152266643}
        outSlope: {x: -.00152266631, y: -.00152266643, z: -.00152266643}
        tangentMode: 84
      m_PreInfinity: 2
      m_PostInfinity: 2
    path: 
  m_FloatCurves: []
  m_PPtrCurves: []
  m_SampleRate: 60
  m_WrapMode: 0
  m_Bounds:
    m_Center: {x: 0, y: 0, z: 0}
    m_Extent: {x: 0, y: 0, z: 0}
  m_ClipBindingConstant:
    genericBindings:
    - path: 0
      attribute: 1
      script: {fileID: 0}
      classID: 4
      customType: 0
      isPPtrCurve: 0
    - path: 0
      attribute: 3
      script: {fileID: 0}
      classID: 4
      customType: 0
      isPPtrCurve: 0
    pptrCurveMapping: []
  m_AnimationClipSettings:
    serializedVersion: 2
    m_StartTime: 0
    m_StopTime: 30.0333328
    m_OrientationOffsetY: 0
    m_Level: 0
    m_CycleOffset: 0
    m_LoopTime: 1
    m_LoopBlend: 0
    m_LoopBlendOrientation: 0
    m_LoopBlendPositionY: 0
    m_LoopBlendPositionXZ: 0
    m_KeepOriginalOrientation: 0
    m_KeepOriginalPositionY: 1
    m_KeepOriginalPositionXZ: 0
    m_HeightFromFeet: 0
    m_Mirror: 0
  m_EditorCurves:
  - curve:
      serializedVersion: 2
      m_Curve:
      - time: 0
        value: -3.63000011
        inSlope: .120102957
        outSlope: .120102957
        tangentMode: 10
      - time: 30.0333328
        value: -.0229080003
        inSlope: .120102957
        outSlope: .120102957
        tangentMode: 10
      m_PreInfinity: 2
      m_PostInfinity: 2
    attribute: m_LocalPosition.x
    path: 
    classID: 4
    script: {fileID: 0}
  - curve:
      serializedVersion: 2
      m_Curve:
      - time: 0
        value: -7.55000019
        inSlope: .267332315
        outSlope: .267332315
        tangentMode: 10
      - time: 30.0333328
        value: .478879988
        inSlope: .267332315
        outSlope: .267332315
        tangentMode: 10
      m_PreInfinity: 2
      m_PostInfinity: 2
    attribute: m_LocalPosition.y
    path: 
    classID: 4
    script: {fileID: 0}
  - curve:
      serializedVersion: 2
      m_Curve:
      - time: 0
        value: 0
        inSlope: -.00470643723
        outSlope: -.00470643723
        tangentMode: 10
      - time: 30.0333328
        value: -.141350001
        inSlope: -.00470643723
        outSlope: -.00470643723
        tangentMode: 10
      m_PreInfinity: 2
      m_PostInfinity: 2
    attribute: m_LocalPosition.z
    path: 
    classID: 4
    script: {fileID: 0}
  - curve:
      serializedVersion: 2
      m_Curve:
      - time: 0
        value: .0552158579
        inSlope: -.00152266631
        outSlope: -.00152266631
        tangentMode: 10
      - time: 30.0333328
        value: .00948511437
        inSlope: -.00152266631
        outSlope: -.00152266631
        tangentMode: 10
      m_PreInfinity: 2
      m_PostInfinity: 2
    attribute: m_LocalScale.x
    path: 
    classID: 4
    script: {fileID: 0}
  - curve:
      serializedVersion: 2
      m_Curve:
      - time: 0
        value: .0552158654
        inSlope: -.00152266643
        outSlope: -.00152266643
        tangentMode: 10
      - time: 30.0333328
        value: .00948511716
        inSlope: -.00152266643
        outSlope: -.00152266643
        tangentMode: 10
      m_PreInfinity: 2
      m_PostInfinity: 2
    attribute: m_LocalScale.y
    path: 
    classID: 4
    script: {fileID: 0}
  - curve:
      serializedVersion: 2
      m_Curve:
      - time: 0
        value: .0552158654
        inSlope: -.00152266643
        outSlope: -.00152266643
        tangentMode: 10
      - time: 30.0333328
        value: .00948511716
        inSlope: -.00152266643
        outSlope: -.00152266643
        tangentMode: 10
      m_PreInfinity: 2
      m_PostInfinity: 2
    attribute: m_LocalScale.z
    path: 
    classID: 4
    script: {fileID: 0}
  m_EulerEditorCurves: []
  m_Events: []
