%YAML 1.1
%TAG !u! tag:unity3d.com,2011:
--- !u!74 &7400000
AnimationClip:
  m_ObjectHideFlags: 0
  m_PrefabParentObject: {fileID: 0}
  m_PrefabInternal: {fileID: 0}
  m_Name: Geleira
  serializedVersion: 4
  m_AnimationType: 2
  m_Compressed: 0
  m_UseHighQualityCurve: 1
  m_RotationCurves: []
  m_CompressedRotationCurves: []
  m_PositionCurves:
  - curve:
      serializedVersion: 2
      m_Curve:
      - time: 0
        value: {x: .250959992, y: 2.77729988, z: 48.6969986}
        inSlope: {x: 0, y: .250875056, z: 0}
        outSlope: {x: 0, y: .250875056, z: 0}
        tangentMode: 0
      - time: 4
        value: {x: .250959992, y: 3.7808001, z: 48.6969986}
        inSlope: {x: 0, y: 0, z: 0}
        outSlope: {x: 0, y: 0, z: 0}
        tangentMode: 1102577664
      - time: 8
        value: {x: .250959992, y: 2.77729988, z: 48.6969986}
        inSlope: {x: 0, y: -.250875056, z: 0}
        outSlope: {x: 0, y: -.250875056, z: 0}
        tangentMode: 1102577664
      m_PreInfinity: 2
      m_PostInfinity: 2
    path: 
  m_ScaleCurves: []
  m_FloatCurves: []
  m_PPtrCurves:
  - curve:
    - time: 0
      value: {fileID: 21300000, guid: 5c9550dc393909f4893bca51c6acfda7, type: 3}
    - time: .0833333358
      value: {fileID: 21300000, guid: f881bf8eaee2cf14dacc855673b82e83, type: 3}
    - time: .166666672
      value: {fileID: 21300000, guid: 30df474866012e84198d97368ec8ff75, type: 3}
    - time: .25
      value: {fileID: 21300000, guid: d4584a372fc2e084cb077fcc8cef0ffa, type: 3}
    - time: .333333343
      value: {fileID: 21300000, guid: c169a6787e28cf940847d07e17d1e4f8, type: 3}
    - time: .416666657
      value: {fileID: 21300000, guid: f3498492084d32a419a662b5452dcba6, type: 3}
    - time: .5
      value: {fileID: 21300000, guid: 9c2d8629cfb16184a86c31efaa81cc8b, type: 3}
    - time: .583333313
      value: {fileID: 21300000, guid: 5527d0f8be34f4d48a71b519ff841261, type: 3}
    - time: .666666687
      value: {fileID: 21300000, guid: 8ae241f5334397c4c9a7b3c2c0529970, type: 3}
    - time: .833333313
      value: {fileID: 21300000, guid: 5c9550dc393909f4893bca51c6acfda7, type: 3}
    - time: .916666687
      value: {fileID: 21300000, guid: f881bf8eaee2cf14dacc855673b82e83, type: 3}
    - time: 1
      value: {fileID: 21300000, guid: 30df474866012e84198d97368ec8ff75, type: 3}
    - time: 1.08333337
      value: {fileID: 21300000, guid: d4584a372fc2e084cb077fcc8cef0ffa, type: 3}
    - time: 1.16666663
      value: {fileID: 21300000, guid: c169a6787e28cf940847d07e17d1e4f8, type: 3}
    - time: 1.25
      value: {fileID: 21300000, guid: f3498492084d32a419a662b5452dcba6, type: 3}
    - time: 1.33333337
      value: {fileID: 21300000, guid: 9c2d8629cfb16184a86c31efaa81cc8b, type: 3}
    - time: 1.41666663
      value: {fileID: 21300000, guid: 5527d0f8be34f4d48a71b519ff841261, type: 3}
    - time: 1.5
      value: {fileID: 21300000, guid: 8ae241f5334397c4c9a7b3c2c0529970, type: 3}
    - time: 1.58333337
      value: {fileID: 21300000, guid: 5c9550dc393909f4893bca51c6acfda7, type: 3}
    - time: 1.66666675
      value: {fileID: 21300000, guid: f881bf8eaee2cf14dacc855673b82e83, type: 3}
    - time: 1.75
      value: {fileID: 21300000, guid: 30df474866012e84198d97368ec8ff75, type: 3}
    - time: 1.83333337
      value: {fileID: 21300000, guid: d4584a372fc2e084cb077fcc8cef0ffa, type: 3}
    - time: 1.91666663
      value: {fileID: 21300000, guid: c169a6787e28cf940847d07e17d1e4f8, type: 3}
    - time: 2
      value: {fileID: 21300000, guid: f3498492084d32a419a662b5452dcba6, type: 3}
    - time: 2.08333349
      value: {fileID: 21300000, guid: 9c2d8629cfb16184a86c31efaa81cc8b, type: 3}
    - time: 2.16666675
      value: {fileID: 21300000, guid: 5527d0f8be34f4d48a71b519ff841261, type: 3}
    - time: 2.25
      value: {fileID: 21300000, guid: 8ae241f5334397c4c9a7b3c2c0529970, type: 3}
    - time: 2.33333325
      value: {fileID: 21300000, guid: 5c9550dc393909f4893bca51c6acfda7, type: 3}
    - time: 2.41666675
      value: {fileID: 21300000, guid: f881bf8eaee2cf14dacc855673b82e83, type: 3}
    - time: 2.5
      value: {fileID: 21300000, guid: 30df474866012e84198d97368ec8ff75, type: 3}
    - time: 2.58333349
      value: {fileID: 21300000, guid: d4584a372fc2e084cb077fcc8cef0ffa, type: 3}
    - time: 2.66666675
      value: {fileID: 21300000, guid: c169a6787e28cf940847d07e17d1e4f8, type: 3}
    - time: 2.75
      value: {fileID: 21300000, guid: f3498492084d32a419a662b5452dcba6, type: 3}
    - time: 2.83333349
      value: {fileID: 21300000, guid: 9c2d8629cfb16184a86c31efaa81cc8b, type: 3}
    - time: 2.91666675
      value: {fileID: 21300000, guid: 5527d0f8be34f4d48a71b519ff841261, type: 3}
    - time: 3
      value: {fileID: 21300000, guid: 8ae241f5334397c4c9a7b3c2c0529970, type: 3}
    - time: 3.08333325
      value: {fileID: 21300000, guid: 5c9550dc393909f4893bca51c6acfda7, type: 3}
    - time: 3.16666675
      value: {fileID: 21300000, guid: f881bf8eaee2cf14dacc855673b82e83, type: 3}
    - time: 3.25
      value: {fileID: 21300000, guid: 30df474866012e84198d97368ec8ff75, type: 3}
    - time: 3.33333349
      value: {fileID: 21300000, guid: d4584a372fc2e084cb077fcc8cef0ffa, type: 3}
    - time: 3.41666675
      value: {fileID: 21300000, guid: c169a6787e28cf940847d07e17d1e4f8, type: 3}
    - time: 3.5
      value: {fileID: 21300000, guid: f3498492084d32a419a662b5452dcba6, type: 3}
    - time: 3.58333349
      value: {fileID: 21300000, guid: 9c2d8629cfb16184a86c31efaa81cc8b, type: 3}
    - time: 3.66666675
      value: {fileID: 21300000, guid: 5527d0f8be34f4d48a71b519ff841261, type: 3}
    - time: 3.75
      value: {fileID: 21300000, guid: 8ae241f5334397c4c9a7b3c2c0529970, type: 3}
    - time: 3.83333325
      value: {fileID: 21300000, guid: 5c9550dc393909f4893bca51c6acfda7, type: 3}
    - time: 3.91666675
      value: {fileID: 21300000, guid: f881bf8eaee2cf14dacc855673b82e83, type: 3}
    - time: 4
      value: {fileID: 21300000, guid: 30df474866012e84198d97368ec8ff75, type: 3}
    - time: 4.08333349
      value: {fileID: 21300000, guid: 5c9550dc393909f4893bca51c6acfda7, type: 3}
    - time: 4.16666651
      value: {fileID: 21300000, guid: f881bf8eaee2cf14dacc855673b82e83, type: 3}
    - time: 4.25
      value: {fileID: 21300000, guid: 30df474866012e84198d97368ec8ff75, type: 3}
    - time: 4.33333349
      value: {fileID: 21300000, guid: d4584a372fc2e084cb077fcc8cef0ffa, type: 3}
    - time: 4.41666651
      value: {fileID: 21300000, guid: c169a6787e28cf940847d07e17d1e4f8, type: 3}
    - time: 4.5
      value: {fileID: 21300000, guid: f3498492084d32a419a662b5452dcba6, type: 3}
    - time: 4.58333349
      value: {fileID: 21300000, guid: 9c2d8629cfb16184a86c31efaa81cc8b, type: 3}
    - time: 4.66666651
      value: {fileID: 21300000, guid: 5527d0f8be34f4d48a71b519ff841261, type: 3}
    - time: 4.75
      value: {fileID: 21300000, guid: 8ae241f5334397c4c9a7b3c2c0529970, type: 3}
    - time: 4.91666651
      value: {fileID: 21300000, guid: 5c9550dc393909f4893bca51c6acfda7, type: 3}
    - time: 5
      value: {fileID: 21300000, guid: f881bf8eaee2cf14dacc855673b82e83, type: 3}
    - time: 5.08333349
      value: {fileID: 21300000, guid: 30df474866012e84198d97368ec8ff75, type: 3}
    - time: 5.16666651
      value: {fileID: 21300000, guid: d4584a372fc2e084cb077fcc8cef0ffa, type: 3}
    - time: 5.25
      value: {fileID: 21300000, guid: c169a6787e28cf940847d07e17d1e4f8, type: 3}
    - time: 5.33333349
      value: {fileID: 21300000, guid: f3498492084d32a419a662b5452dcba6, type: 3}
    - time: 5.41666651
      value: {fileID: 21300000, guid: 9c2d8629cfb16184a86c31efaa81cc8b, type: 3}
    - time: 5.5
      value: {fileID: 21300000, guid: 5527d0f8be34f4d48a71b519ff841261, type: 3}
    - time: 5.58333349
      value: {fileID: 21300000, guid: 8ae241f5334397c4c9a7b3c2c0529970, type: 3}
    - time: 5.66666651
      value: {fileID: 21300000, guid: 5c9550dc393909f4893bca51c6acfda7, type: 3}
    - time: 5.75
      value: {fileID: 21300000, guid: f881bf8eaee2cf14dacc855673b82e83, type: 3}
    - time: 5.83333349
      value: {fileID: 21300000, guid: 30df474866012e84198d97368ec8ff75, type: 3}
    - time: 5.91666651
      value: {fileID: 21300000, guid: d4584a372fc2e084cb077fcc8cef0ffa, type: 3}
    - time: 6
      value: {fileID: 21300000, guid: c169a6787e28cf940847d07e17d1e4f8, type: 3}
    - time: 6.08333349
      value: {fileID: 21300000, guid: f3498492084d32a419a662b5452dcba6, type: 3}
    - time: 6.16666698
      value: {fileID: 21300000, guid: 9c2d8629cfb16184a86c31efaa81cc8b, type: 3}
    - time: 6.25
      value: {fileID: 21300000, guid: 5527d0f8be34f4d48a71b519ff841261, type: 3}
    - time: 6.33333349
      value: {fileID: 21300000, guid: 8ae241f5334397c4c9a7b3c2c0529970, type: 3}
    - time: 6.41666651
      value: {fileID: 21300000, guid: 5c9550dc393909f4893bca51c6acfda7, type: 3}
    - time: 6.5
      value: {fileID: 21300000, guid: f881bf8eaee2cf14dacc855673b82e83, type: 3}
    - time: 6.58333349
      value: {fileID: 21300000, guid: 30df474866012e84198d97368ec8ff75, type: 3}
    - time: 6.66666698
      value: {fileID: 21300000, guid: d4584a372fc2e084cb077fcc8cef0ffa, type: 3}
    - time: 6.75
      value: {fileID: 21300000, guid: c169a6787e28cf940847d07e17d1e4f8, type: 3}
    - time: 6.83333349
      value: {fileID: 21300000, guid: f3498492084d32a419a662b5452dcba6, type: 3}
    - time: 6.91666698
      value: {fileID: 21300000, guid: 9c2d8629cfb16184a86c31efaa81cc8b, type: 3}
    - time: 7
      value: {fileID: 21300000, guid: 5527d0f8be34f4d48a71b519ff841261, type: 3}
    - time: 7.08333349
      value: {fileID: 21300000, guid: 8ae241f5334397c4c9a7b3c2c0529970, type: 3}
    - time: 7.16666651
      value: {fileID: 21300000, guid: 5c9550dc393909f4893bca51c6acfda7, type: 3}
    - time: 7.25
      value: {fileID: 21300000, guid: f881bf8eaee2cf14dacc855673b82e83, type: 3}
    - time: 7.33333349
      value: {fileID: 21300000, guid: 30df474866012e84198d97368ec8ff75, type: 3}
    - time: 7.41666698
      value: {fileID: 21300000, guid: d4584a372fc2e084cb077fcc8cef0ffa, type: 3}
    - time: 7.5
      value: {fileID: 21300000, guid: c169a6787e28cf940847d07e17d1e4f8, type: 3}
    - time: 7.58333349
      value: {fileID: 21300000, guid: f3498492084d32a419a662b5452dcba6, type: 3}
    - time: 7.66666698
      value: {fileID: 21300000, guid: 9c2d8629cfb16184a86c31efaa81cc8b, type: 3}
    - time: 7.75
      value: {fileID: 21300000, guid: 5527d0f8be34f4d48a71b519ff841261, type: 3}
    - time: 7.83333349
      value: {fileID: 21300000, guid: 8ae241f5334397c4c9a7b3c2c0529970, type: 3}
    - time: 7.91666651
      value: {fileID: 21300000, guid: 5c9550dc393909f4893bca51c6acfda7, type: 3}
    - time: 8
      value: {fileID: 21300000, guid: f881bf8eaee2cf14dacc855673b82e83, type: 3}
    attribute: m_Sprite
    path: 
    classID: 212
    script: {fileID: 0}
  m_SampleRate: 12
  m_WrapMode: 0
  m_Bounds:
    m_Center: {x: 0, y: 0, z: 0}
    m_Extent: {x: 0, y: 0, z: 0}
  m_ClipBindingConstant:
    genericBindings:
    - path: 0
      attribute: 1
      script: {fileID: 0}
      classID: 4
      customType: 0
      isPPtrCurve: 0
    - path: 0
      attribute: 0
      script: {fileID: 0}
      classID: 212
      customType: 23
      isPPtrCurve: 1
    pptrCurveMapping:
    - {fileID: 21300000, guid: 5c9550dc393909f4893bca51c6acfda7, type: 3}
    - {fileID: 21300000, guid: f881bf8eaee2cf14dacc855673b82e83, type: 3}
    - {fileID: 21300000, guid: 30df474866012e84198d97368ec8ff75, type: 3}
    - {fileID: 21300000, guid: d4584a372fc2e084cb077fcc8cef0ffa, type: 3}
    - {fileID: 21300000, guid: c169a6787e28cf940847d07e17d1e4f8, type: 3}
    - {fileID: 21300000, guid: f3498492084d32a419a662b5452dcba6, type: 3}
    - {fileID: 21300000, guid: 9c2d8629cfb16184a86c31efaa81cc8b, type: 3}
    - {fileID: 21300000, guid: 5527d0f8be34f4d48a71b519ff841261, type: 3}
    - {fileID: 21300000, guid: 8ae241f5334397c4c9a7b3c2c0529970, type: 3}
    - {fileID: 21300000, guid: 5c9550dc393909f4893bca51c6acfda7, type: 3}
    - {fileID: 21300000, guid: f881bf8eaee2cf14dacc855673b82e83, type: 3}
    - {fileID: 21300000, guid: 30df474866012e84198d97368ec8ff75, type: 3}
    - {fileID: 21300000, guid: d4584a372fc2e084cb077fcc8cef0ffa, type: 3}
    - {fileID: 21300000, guid: c169a6787e28cf940847d07e17d1e4f8, type: 3}
    - {fileID: 21300000, guid: f3498492084d32a419a662b5452dcba6, type: 3}
    - {fileID: 21300000, guid: 9c2d8629cfb16184a86c31efaa81cc8b, type: 3}
    - {fileID: 21300000, guid: 5527d0f8be34f4d48a71b519ff841261, type: 3}
    - {fileID: 21300000, guid: 8ae241f5334397c4c9a7b3c2c0529970, type: 3}
    - {fileID: 21300000, guid: 5c9550dc393909f4893bca51c6acfda7, type: 3}
    - {fileID: 21300000, guid: f881bf8eaee2cf14dacc855673b82e83, type: 3}
    - {fileID: 21300000, guid: 30df474866012e84198d97368ec8ff75, type: 3}
    - {fileID: 21300000, guid: d4584a372fc2e084cb077fcc8cef0ffa, type: 3}
    - {fileID: 21300000, guid: c169a6787e28cf940847d07e17d1e4f8, type: 3}
    - {fileID: 21300000, guid: f3498492084d32a419a662b5452dcba6, type: 3}
    - {fileID: 21300000, guid: 9c2d8629cfb16184a86c31efaa81cc8b, type: 3}
    - {fileID: 21300000, guid: 5527d0f8be34f4d48a71b519ff841261, type: 3}
    - {fileID: 21300000, guid: 8ae241f5334397c4c9a7b3c2c0529970, type: 3}
    - {fileID: 21300000, guid: 5c9550dc393909f4893bca51c6acfda7, type: 3}
    - {fileID: 21300000, guid: f881bf8eaee2cf14dacc855673b82e83, type: 3}
    - {fileID: 21300000, guid: 30df474866012e84198d97368ec8ff75, type: 3}
    - {fileID: 21300000, guid: d4584a372fc2e084cb077fcc8cef0ffa, type: 3}
    - {fileID: 21300000, guid: c169a6787e28cf940847d07e17d1e4f8, type: 3}
    - {fileID: 21300000, guid: f3498492084d32a419a662b5452dcba6, type: 3}
    - {fileID: 21300000, guid: 9c2d8629cfb16184a86c31efaa81cc8b, type: 3}
    - {fileID: 21300000, guid: 5527d0f8be34f4d48a71b519ff841261, type: 3}
    - {fileID: 21300000, guid: 8ae241f5334397c4c9a7b3c2c0529970, type: 3}
    - {fileID: 21300000, guid: 5c9550dc393909f4893bca51c6acfda7, type: 3}
    - {fileID: 21300000, guid: f881bf8eaee2cf14dacc855673b82e83, type: 3}
    - {fileID: 21300000, guid: 30df474866012e84198d97368ec8ff75, type: 3}
    - {fileID: 21300000, guid: d4584a372fc2e084cb077fcc8cef0ffa, type: 3}
    - {fileID: 21300000, guid: c169a6787e28cf940847d07e17d1e4f8, type: 3}
    - {fileID: 21300000, guid: f3498492084d32a419a662b5452dcba6, type: 3}
    - {fileID: 21300000, guid: 9c2d8629cfb16184a86c31efaa81cc8b, type: 3}
    - {fileID: 21300000, guid: 5527d0f8be34f4d48a71b519ff841261, type: 3}
    - {fileID: 21300000, guid: 8ae241f5334397c4c9a7b3c2c0529970, type: 3}
    - {fileID: 21300000, guid: 5c9550dc393909f4893bca51c6acfda7, type: 3}
    - {fileID: 21300000, guid: f881bf8eaee2cf14dacc855673b82e83, type: 3}
    - {fileID: 21300000, guid: 30df474866012e84198d97368ec8ff75, type: 3}
    - {fileID: 21300000, guid: 5c9550dc393909f4893bca51c6acfda7, type: 3}
    - {fileID: 21300000, guid: f881bf8eaee2cf14dacc855673b82e83, type: 3}
    - {fileID: 21300000, guid: 30df474866012e84198d97368ec8ff75, type: 3}
    - {fileID: 21300000, guid: d4584a372fc2e084cb077fcc8cef0ffa, type: 3}
    - {fileID: 21300000, guid: c169a6787e28cf940847d07e17d1e4f8, type: 3}
    - {fileID: 21300000, guid: f3498492084d32a419a662b5452dcba6, type: 3}
    - {fileID: 21300000, guid: 9c2d8629cfb16184a86c31efaa81cc8b, type: 3}
    - {fileID: 21300000, guid: 5527d0f8be34f4d48a71b519ff841261, type: 3}
    - {fileID: 21300000, guid: 8ae241f5334397c4c9a7b3c2c0529970, type: 3}
    - {fileID: 21300000, guid: 5c9550dc393909f4893bca51c6acfda7, type: 3}
    - {fileID: 21300000, guid: f881bf8eaee2cf14dacc855673b82e83, type: 3}
    - {fileID: 21300000, guid: 30df474866012e84198d97368ec8ff75, type: 3}
    - {fileID: 21300000, guid: d4584a372fc2e084cb077fcc8cef0ffa, type: 3}
    - {fileID: 21300000, guid: c169a6787e28cf940847d07e17d1e4f8, type: 3}
    - {fileID: 21300000, guid: f3498492084d32a419a662b5452dcba6, type: 3}
    - {fileID: 21300000, guid: 9c2d8629cfb16184a86c31efaa81cc8b, type: 3}
    - {fileID: 21300000, guid: 5527d0f8be34f4d48a71b519ff841261, type: 3}
    - {fileID: 21300000, guid: 8ae241f5334397c4c9a7b3c2c0529970, type: 3}
    - {fileID: 21300000, guid: 5c9550dc393909f4893bca51c6acfda7, type: 3}
    - {fileID: 21300000, guid: f881bf8eaee2cf14dacc855673b82e83, type: 3}
    - {fileID: 21300000, guid: 30df474866012e84198d97368ec8ff75, type: 3}
    - {fileID: 21300000, guid: d4584a372fc2e084cb077fcc8cef0ffa, type: 3}
    - {fileID: 21300000, guid: c169a6787e28cf940847d07e17d1e4f8, type: 3}
    - {fileID: 21300000, guid: f3498492084d32a419a662b5452dcba6, type: 3}
    - {fileID: 21300000, guid: 9c2d8629cfb16184a86c31efaa81cc8b, type: 3}
    - {fileID: 21300000, guid: 5527d0f8be34f4d48a71b519ff841261, type: 3}
    - {fileID: 21300000, guid: 8ae241f5334397c4c9a7b3c2c0529970, type: 3}
    - {fileID: 21300000, guid: 5c9550dc393909f4893bca51c6acfda7, type: 3}
    - {fileID: 21300000, guid: f881bf8eaee2cf14dacc855673b82e83, type: 3}
    - {fileID: 21300000, guid: 30df474866012e84198d97368ec8ff75, type: 3}
    - {fileID: 21300000, guid: d4584a372fc2e084cb077fcc8cef0ffa, type: 3}
    - {fileID: 21300000, guid: c169a6787e28cf940847d07e17d1e4f8, type: 3}
    - {fileID: 21300000, guid: f3498492084d32a419a662b5452dcba6, type: 3}
    - {fileID: 21300000, guid: 9c2d8629cfb16184a86c31efaa81cc8b, type: 3}
    - {fileID: 21300000, guid: 5527d0f8be34f4d48a71b519ff841261, type: 3}
    - {fileID: 21300000, guid: 8ae241f5334397c4c9a7b3c2c0529970, type: 3}
    - {fileID: 21300000, guid: 5c9550dc393909f4893bca51c6acfda7, type: 3}
    - {fileID: 21300000, guid: f881bf8eaee2cf14dacc855673b82e83, type: 3}
    - {fileID: 21300000, guid: 30df474866012e84198d97368ec8ff75, type: 3}
    - {fileID: 21300000, guid: d4584a372fc2e084cb077fcc8cef0ffa, type: 3}
    - {fileID: 21300000, guid: c169a6787e28cf940847d07e17d1e4f8, type: 3}
    - {fileID: 21300000, guid: f3498492084d32a419a662b5452dcba6, type: 3}
    - {fileID: 21300000, guid: 9c2d8629cfb16184a86c31efaa81cc8b, type: 3}
    - {fileID: 21300000, guid: 5527d0f8be34f4d48a71b519ff841261, type: 3}
    - {fileID: 21300000, guid: 8ae241f5334397c4c9a7b3c2c0529970, type: 3}
    - {fileID: 21300000, guid: 5c9550dc393909f4893bca51c6acfda7, type: 3}
    - {fileID: 21300000, guid: f881bf8eaee2cf14dacc855673b82e83, type: 3}
  m_AnimationClipSettings:
    serializedVersion: 2
    m_StartTime: 0
    m_StopTime: 8.08333302
    m_OrientationOffsetY: 0
    m_Level: 0
    m_CycleOffset: 0
    m_LoopTime: 1
    m_LoopBlend: 0
    m_LoopBlendOrientation: 0
    m_LoopBlendPositionY: 0
    m_LoopBlendPositionXZ: 0
    m_KeepOriginalOrientation: 0
    m_KeepOriginalPositionY: 1
    m_KeepOriginalPositionXZ: 0
    m_HeightFromFeet: 0
    m_Mirror: 0
  m_EditorCurves:
  - curve:
      serializedVersion: 2
      m_Curve:
      - time: 0
        value: .250959992
        inSlope: 0
        outSlope: 0
        tangentMode: 10
      - time: 4
        value: .250959992
        inSlope: 0
        outSlope: 0
        tangentMode: 10
      m_PreInfinity: 2
      m_PostInfinity: 2
    attribute: m_LocalPosition.x
    path: 
    classID: 4
    script: {fileID: 0}
  - curve:
      serializedVersion: 2
      m_Curve:
      - time: 0
        value: 2.77729988
        inSlope: .250875056
        outSlope: .250875056
        tangentMode: 10
      - time: 4
        value: 3.7808001
        inSlope: 0
        outSlope: 0
        tangentMode: 10
      - time: 8
        value: 2.77729988
        inSlope: -.250875056
        outSlope: -.250875056
        tangentMode: 10
      m_PreInfinity: 2
      m_PostInfinity: 2
    attribute: m_LocalPosition.y
    path: 
    classID: 4
    script: {fileID: 0}
  - curve:
      serializedVersion: 2
      m_Curve:
      - time: 0
        value: 48.6969986
        inSlope: 0
        outSlope: 0
        tangentMode: 10
      - time: 4
        value: 48.6969986
        inSlope: 0
        outSlope: 0
        tangentMode: 10
      m_PreInfinity: 2
      m_PostInfinity: 2
    attribute: m_LocalPosition.z
    path: 
    classID: 4
    script: {fileID: 0}
  m_EulerEditorCurves: []
  m_Events: []
